Posts

Id                      int
PostTypeId              tinyint
AcceptedAnswerId        int
ParentId                int
CreationDate            datetime
DeletionDate            datetime
Score                   int
ViewCount               int
Body                    nvarchar (max)
OwnerUserId             int
OwnerDisplayName        nvarchar (40)
LastEditorUserId        int
LastEditorDisplayName   nvarchar (40)
LastEditDate            datetime
LastActivityDate        datetime
Title                   nvarchar (250)
Tags                    nvarchar (250)
AnswerCount             int
CommentCount            int
FavoriteCount           int
ClosedDate              datetime
CommunityOwnedDate      datetime
ContentLicense          varchar (12)